<svg width="20" height="20" viewBox="0 0 20 20" fill="none" xmlns="http://www.w3.org/2000/svg">
<g id="instagram1 1">
<path id="Vector" d="M17.0703 0H2.92969C1.31348 0 0 1.31348 0 2.92969V17.0703C0 18.6865 1.31348 20 2.92969 20H17.0703C18.6865 20 20 18.6865 20 17.0703V2.92969C20 1.31348 18.6865 0 17.0703 0ZM10.0391 15.2344C7.12891 15.2344 4.76562 12.8711 4.76562 9.96094C4.76562 7.05078 7.12891 4.6875 10.0391 4.6875C12.9492 4.6875 15.3125 7.05078 15.3125 9.96094C15.3125 12.8711 12.9492 15.2344 10.0391 15.2344ZM15.8984 5.85938C14.9268 5.85938 14.1406 5.07324 14.1406 4.10156C14.1406 3.12988 14.9268 2.34375 15.8984 2.34375C16.8652 2.34375 17.6562 3.12988 17.6562 4.10156C17.6562 5.07324 16.8652 5.85938 15.8984 5.85938Z" fill="white"/>
<path id="Vector_2" d="M15.8984 3.51562C15.5762 3.51562 15.3125 3.7793 15.3125 4.10156C15.3125 4.42383 15.5762 4.6875 15.8984 4.6875C16.2207 4.6875 16.4844 4.42383 16.4844 4.10156C16.4844 3.7793 16.2207 3.51562 15.8984 3.51562Z" fill="white"/>
<path id="Vector_3" d="M10.0391 5.85938C7.77832 5.85938 5.9375 7.7002 5.9375 9.96094C5.9375 12.2217 7.77832 14.0625 10.0391 14.0625C12.2998 14.0625 14.1406 12.2217 14.1406 9.96094C14.1406 7.7002 12.2998 5.85938 10.0391 5.85938Z" fill="white"/>
</g>
</svg>
