<svg width="15" height="15" viewBox="0 0 15 15" fill="none" xmlns="http://www.w3.org/2000/svg">
<g clip-path="url(#clip0)">
<path d="M7.5 0.0151367C3.3645 0.0151367 0 3.37963 0 7.51512C0 11.6506 3.3645 14.9849 7.5 14.9849C11.6355 14.9849 15 11.6506 15 7.51512C15 3.37963 11.6355 0.0151367 7.5 0.0151367ZM8 7.73462C8 8.01062 7.776 8.23462 7.5 8.23462H3.5C3.224 8.23462 3 8.01062 3 7.73462C3 7.45862 3.224 7.23462 3.5 7.23462H7V1.73463C7 1.45863 7.224 1.23463 7.5 1.23463C7.776 1.23463 8 1.45863 8 1.73463V7.73462Z" fill="#917452"/>
</g>
<defs>
<clipPath id="clip0">
<rect width="15" height="15" fill="white"/>
</clipPath>
</defs>
</svg>
